…
grid <- long_grid(x = seq(0, 1, length.out = 100),
                  y = seq(0, 1, length.out = 100))

grid <- grid %>% 
  mutate(
    noise = fracture(gen_perlin, fbm, octaves = 4, x = x, y = y, freq_init = 5)
  )

grid

## # A tibble: 10,000 x 3
##        x      y noise
##    <dbl>  <dbl> <dbl>
##  1     0 0      0    
##  2     0 0.0101 0.117
##  3     0 0.0202 0.275
##  4     0 0.0303 0.423
##  5     0 0.0404 0.516
##  6     0 0.0505 0.553
##  7     0 0.0606 0.588
##  8     0 0.0707 0.605
##  9     0 0.0808 0.567
## 10     0 0.0909 0.520
## # … with 9,990 more rows
…
